0100000000000021100106510400002!3103005450
0100000000000021100116510400001!0100000000000021100106510400002!3103005450
0100000000000031100106510400001!3103005490
0100000000000031100106510400002!0100000000000021100106510400002!3103005450
0100000000000041100106510400001!3103005490
0100000000071391101234!3103005450
0100000000066381100106510400001!3103005450
0100000000066151100106510400001!3103005450
0100000000091021100106510400001!3000000500
0130020100020000000716{}02{9}34{0027}17{}133{0014}23{}0003{00130000}
01000000000661500007000300130000
0100000000000021150802023103006000306!1001/1!

Schiller
0100000000042913101909120610
01940322512124811300000015000000107912402
010401495452857810000002920941

