           putstr ( aktionname , welchesdr561 # " -mdn " # rech.mdn
                # " -anzahl " # ix
                # " -rechnr " # dllrech_nr
                # " -formtyp " # iformat # cpartymdn
                # " -blgtyp " # dllblg_typ
                # " -nutzer " # dllnutzer
                # " -silent " # isilent
                # " -duplikat " # duplikatd
                # " -medium " # dmedium




medium : aktiviert druckerdialog 
iformat : 56100xwp

x = mit oder ohne Rab.
w = Wiederholungsnummer
p = party-mandant ( faktultativ )

Nutzer : fakultativ

Beispiel :
dr561 -mdn 1 -anzahl 1 -rechnr 1062 -formtyp 5610000 -blgtyp R -medium 1
 