[Project ID]
Signature=UE Proj: v.1
[Project Information]
Project Directory=D:\USER\FIT\ITEM\
Use Relative Directory=0
[Open Files]
Open File0=d:\Programme\UltraEdit\WORDFILE.TXT
Open File Pos0=22787
Open File Line0=22517
Active File Index=16
Open File Window Pos0=0,1,0,0,-4,-23,110,110,982,589
Open File1=D:\user\teis\RSF\21610\s21610.rsf
Open File Pos1=218572
Open File Line1=217933
Open File Window Pos1=0,1,0,0,-4,-23,220,220,1092,699
Open File2=D:\user\teis\RSF\21610\f216101.rsf
Active File Display Mode=3
Open File Pos2=3836
Open File Line2=3428
Open File Window Pos2=0,1,0,0,-4,-23,0,0,872,479
Open File3=D:\user\teis\RSF\21610\F216107.RSF
Open File Pos3=22284
Open File Line3=22226
Open File Window Pos3=0,1,0,0,-4,-23,198,198,1070,677
Open File4=D:\user\teis\RSF\21610\f216106.rsf
Open File Pos4=0
Open File Line4=0
Open File Window Pos4=0,1,0,0,-4,-23,22,22,894,501
Open File5=D:\user\teis\RSF\21610\f216105.rsf
Open File Pos5=219
Open File Line5=0
Open File Window Pos5=0,1,0,0,-4,-23,44,44,916,523
Open File6=D:\user\teis\RSF\21610\F216104.RSF
Open File Pos6=3997
Open File Line6=3527
Open File Window Pos6=0,1,0,0,-4,-23,66,66,938,545
Open File7=D:\user\fit\etc\21610.CFG
Open File Pos7=1139
Open File Line7=0
Open File Window Pos7=0,1,0,0,-4,-23,22,22,832,610
Open File8=D:\user\fit\item\21610F.ptm
Open File Pos8=89
Open File Line8=0
Open File Window Pos8=0,1,0,0,-4,-23,44,44,854,632
Open File9=d:\user\teis\cmd\G_21610.BAT
Open File Pos9=2776
Open File Line9=1721
Open File Window Pos9=0,1,0,0,-4,-23,264,264,994,809
Open File10=D:\user\fit\item\216103.ITM
Open File Pos10=207
Open File Line10=0
Open File Window Pos10=0,1,0,0,-4,-23,242,242,670,787
Open File11=D:\user\teis\RSF\17100\mo_dbspe.rsf
Open File Pos11=0
Open File Line11=0
Open File Window Pos11=0,1,0,0,-4,-23,110,110,1126,694
Open File12=D:\user\fit\item\216101.PTM
Open File Pos12=232
Open File Line12=0
Open File Window Pos12=0,1,0,0,-4,-23,220,220,1135,675
Open File13=D:\user\teis\RSF\21610\F216103.RSF
Open File Pos13=5788
Open File Line13=5186
Open File Window Pos13=0,1,0,0,-4,-23,0,0,915,455
Open File14=D:\user\fit\item\216101.ITM
Open File Pos14=145
Open File Line14=0
Open File Window Pos14=0,1,0,0,-4,-23,88,88,1003,543
Open File15=D:\user\fit\etc\21300.CFG
Open File Pos15=1776
Open File Line15=653
Open File Window Pos15=0,1,0,0,-4,-23,176,176,1047,760
Open File16=D:\user\fit\item\216105.ITM
Open File Pos16=35
Open File Line16=0
Open File Window Pos16=2,3,0,0,-4,-23,110,110,1025,558
Open File17=D:\user\teis\RSF\21610\mo_dbspe.rsf
Open File Pos17=0
Open File Line17=0
Open File Window Pos17=0,1,0,0,-4,-23,66,66,981,514
Open File18=D:\user\teis\RSF\21610\m_afenst.rsf
Open File Pos18=0
Open File Line18=0
Open File Window Pos18=0,1,0,0,-4,-23,88,88,1003,536
Open File19=D:\user\teis\RSF\21610\m_kale.rsf
Open File Pos19=0
Open File Line19=0
Open File Window Pos19=0,1,0,0,-4,-23,110,110,1025,558
Open File20=D:\user\teis\RSF\21610\m_schlre.rsf
Open File Pos20=0
Open File Line20=0
Open File Window Pos20=0,1,0,0,-4,-23,132,132,1047,580
Open File21=
Open File Pos21=0
Open File Line21=0
Open File Window Pos21=0,1,0,0,-4,-23,132,132,1047,580
Open File22=
Open File Pos22=0
Open File Line22=0
Open File Window Pos22=0,1,0,0,-4,-23,66,66,981,514
Open File23=D:\user\teis\RSF\21610\m_afenst.rsf
Open File Pos23=0
Open File Line23=0
Open File Window Pos23=0,1,0,0,-4,-23,88,88,1003,536
Open File24=D:\user\teis\RSF\21610\m_kale.rsf
Open File Pos24=0
Open File Line24=0
Open File Window Pos24=0,1,0,0,-4,-23,110,110,1025,558
Open File25=D:\user\teis\RSF\21610\m_schlre.rsf
Open File Pos25=0
Open File Line25=0
Open File Window Pos25=0,1,0,0,-4,-23,132,132,1047,580
Open File26=D:\user\teis\RSF\21610\s21610.rsf-mitHorror
Open File Pos26=0
Open File Line26=0
Open File Window Pos26=2,3,0,0,-4,-23,154,154,1069,602
Open File27=
[File View]
Current Select=D:\user\fit\TMP\sk4068.prp
[Files]
0=D:\user\fit\etc\21610.CFG
1=D:\user\teis\RSF\21610\21610.PRJ
2=D:\user\fit\item\216101.ITM
3=D:\user\fit\item\216101.PTM
4=D:\user\fit\item\216101V.ptm
5=D:\user\fit\item\216102.PTM
6=D:\user\fit\item\216103.ITM
7=D:\user\fit\item\216103.PTM
8=D:\user\fit\item\216104.ITM
9=D:\user\fit\item\216104.PTM
10=D:\user\fit\item\216104V.itm
11=D:\user\fit\item\216105.ITM
12=D:\user\fit\item\216105.PTM
13=D:\user\fit\item\216106.ITM
14=D:\user\fit\item\216106.PTM
15=D:\user\fit\item\216106.PTS
16=D:\user\fit\item\216107.PTM
17=D:\user\fit\item\216108.PTM
18=D:\user\fit\item\216108B.PTM
19=D:\user\fit\item\21610cnf.ptm
20=D:\user\fit\item\21610F.ptm
21=D:\user\fit\item\21610sil.ptm
22=D:\user\teis\RSF\21610\f216101.rsf
23=D:\user\teis\RSF\21610\F216103.RSF
24=D:\user\teis\RSF\21610\F216104.RSF
25=D:\user\teis\RSF\21610\f216105.rsf
26=D:\user\teis\RSF\21610\f216106.rsf
27=D:\user\teis\RSF\21610\F216107.RSF
28=D:\user\teis\RSF\21610\m_afenst.rsf
29=D:\user\teis\RSF\21610\m_kale.rsf
30=D:\user\teis\RSF\21610\m_schlre.rsf
31=D:\user\teis\RSF\21610\mo_dbspe.rsf
32=D:\user\teis\RSF\21610\s21610.rsf
