Angebot für Progarmmänderung 5360p vom 29.06.2007
--------------------------------------------------------------------------

Bei Artikeln mit charg_hand = 2 oder charg_hand = 4 wird die eingescannte Nummer als
EAN128 interpretiert. Die Chargennummer wird unter der AI 10 gesucht und den Definitionen des
EAN128 entsprechend herausgelesen.

Aufwand 4 Stunden
 