create table tempdrx
(
bearb date ,
form_nr char(10),
lila smallint,
lfd01 integer,
lfd02 integer,
lfd03 integer,
lfd04 integer,
lfd05 integer,
lfd06 integer,
lfd07 integer,
lfd08 integer,
lfd09 integer,
lfd10 integer,
dfeld01 decimal (17,4) ,
dfeld02 decimal (17,4) ,
dfeld03 decimal (17,4) ,
dfeld04 decimal (17,4) ,
dfeld05 decimal (17,4) ,
dfeld06 decimal (17,4) ,
dfeld07 decimal (17,4) ,
dfeld08 decimal (17,4) ,
dfeld09 decimal (17,4) ,
dfeld10 decimal (17,4) ,
dfeld11 decimal (17,4) ,
dfeld12 decimal (17,4) ,
dfeld13 decimal (17,4) ,
dfeld14 decimal (17,4) ,
dfeld15 decimal (17,4) ,
dfeld16 decimal (17,4) ,
dfeld17 decimal (17,4) ,
dfeld18 decimal (17,4) ,
dfeld19 decimal (17,4) ,
dfeld20 decimal (17,4) ,

cfeld101 char(16) ,
cfeld102 char(16) ,
cfeld103 char(16) ,
cfeld104 char(16) ,
cfeld105 char(16) ,

cfeld201 char(24) ,
cfeld202 char(24) ,
cfeld203 char(24) ,
cfeld204 char(24) ,
cfeld205 char(24) ,

cfeld301 char(36) ,
cfeld302 char(36) ,
cfeld303 char(36) ,
cfeld304 char(36) ,
cfeld305 char(36)
) in fit_stat extent size 32 next size 256 lock mode row ;

create index i01tempdrx on tempdrx ( form_nr, lila) ;
