13151; 000001; 899999; 3.00; P;910001;
13146; 000001; 899999; 3.00; P;910001;
13146; 000001; 899999; 3.00; P;910001;
13139; 000001; 899999; 3.00; P;910001;
13081; 000001; 899999; 3.00; P;910001;
13118; 000001; 899999; 3.00; P;910001;
13162; 000001; 899999; 4.00; P;910002;
13125; 000001; 899999; 4.00; P;910002;
14098; 140000; 140999;20.00; E;910005;
14098; 140000; 140999; 2.50; E;910006;
52012; 140000; 140999;30.00; E;910007;
52143; 140000; 140999;30.00; E;910007;
52189; 140000; 140999;12.75; E;910008;
52031; 140000; 140999; 5.00; E;910009;
52069; 140000; 140999;25.00; E;910010;
51041; 140000; 140999;53.00; E;910011;
51053; 140000; 140999;53.00; E;910011;
51046; 140000; 140999; 5.00; E;910009;
52102; 140000; 140999;40.00; E;910012;
51074; 140000; 140999;33.00; E;910013;
52125; 140000; 140999;49.50; E;910014;
52142; 140000; 140999;30.00; E;910007;
52158; 140000; 140999;30.00; E;910007;
52172; 140000; 140999;30.00; E;910007;
52186; 140000; 140999;25.00; E;910010;
