AOG$AUG$ARTNR$BEZ1$STKZ$A$ME1$LGORT$BEZ2$STKZ2$B$ME2
20$10$1$Ist der Test vom 14.03.00$00$KG$1,500$80$Lagerort neu 80$01$ST$
51$40$9$Spritzlake Kochschinken$00$KG$1,000$10$$00$KG$
51$40$10$Salzmisch.Schww.Schinken$00$KG$1,000$10$SS + BS + Deli.Bauch$00$KG$
21$20$19$Grundbraet-Aufschnitt 1$00$KG$1,000$10$$00$KG$
21$20$20$Grundbraet-Aufschnitt 2$00$KG$1,000$10$f.Aufschn.m.Magerfleisch$00$KG$
21$20$21$Grundbraet-Ladenkaes$00$KG$1,000$10$$00$KG$
7$2$25$Grundbraet-Wiener$00$KG$1,000$10$$00$KG$
7$2$27$Grundbraet-Fleischw.Stang$00$KG$1,000$10$$00$KG$
7$2$29$Grundbraet-Servela$00$KG$1,000$10$$00$KG$
7$2$36$Grundbraet-Fl-Kaes dunkel$00$KG$1,000$10$$00$KG$
7$1$42$Bindegewebe aufbereitet$00$KG$1,000$10$$00$KG$
7$2$43$Grundbraet-Gelbwurst$00$KG$1,000$10$$00$KG$
7$2$44$Grundbraet-Kalbsleb.wurst$00$KG$1,000$10$$00$KG$
22$10$47$Grundbraet-Griebenwurst$00$KG$1,000$10$$00$KG$
7$2$48$Grundbraet-Landjaeger$00$KG$1,000$10$$00$KG$
7$2$51$Grundbraet-Lyoner$00$KG$1,000$10$$00$KG$
7$2$60$Grundbraet-Puten$00$KG$1,000$10$mit Sonnenblumenoel$00$KG$
7$2$78$Grundbraet-Roter Block$00$KG$1,000$10$$00$KG$
7$2$108$Grundbraet-Bratwurst$00$KG$1,000$10$$00$KG$
7$2$280$Kutterstandard 01$00$KG$1,000$10$$00$KG$
7$2$281$Kutterstandard 02$00$KG$1,000$10$$00$KG$
7$2$282$Kutterstandard 03$00$KG$1,000$10$$00$KG$
7$2$283$Kutterstandard 04$00$KG$1,000$10$$00$KG$
7$2$284$Kutterstandard 05$00$KG$1,000$10$$00$KG$
7$2$285$Kutterstandard 06$00$KG$1,000$10$$00$KG$
7$2$286$Kutterstandard 07$00$KG$1,000$10$$00$KG$
7$2$287$Kutterstandard 08$00$KG$1,000$10$$00$KG$
7$2$288$Kutterstandard 09$00$KG$1,000$10$$00$KG$
7$2$289$Kutterstandard 10$00$KG$1,000$10$$00$KG$
7$1$358$Testrezept 1$00$KG$1,000$10$$00$KG$
1$3$411$Kuehe U 1$00$KG$1,000$10$$00$KG$
1$3$421$Kuehe R 1$00$KG$1,000$10$$00$KG$
