bed_umsatz.scr : 
Ablauf : 
	Zwischenabruf Bedienerumsätze  : absman 0 51 0 
	     ruft auf :  beumasco.if  
	                 output ("-n" "Aufruf: asc_bws beumasco.sys beumasco.if SYS arg" "-n")
		         output ("   arg = 0 - alle Filialen     Datei <TMPPATH\\bed_umsatz.0>" "-n")
            		 output ("   arg = 1 - nur eine Filiale  Datei <TMPPATH\\bed_umsatz.SYS>" "-n")
            		 
  	Aufruf : maskeb bed_umsatz.scr  (Holt sich per über ftp vom server die Datei bed_umsatz.0 und zeigt sie an
  	
	